"id","created","updated","password","first_name","last_name","email","faculty_id","status","contact_info","invitation_id"
"2","2020-10-21 12:59:29.759132","2020-10-21 12:59:29.759132","$2a$04$AdPjP4knHUxuKTeRvNHL1eeFRDyhgYOoAxyM/xW4lF0oqdS2OjHm6","Дмитрий","Мажуга","d.mazhuga@g.nsu.ru","1","ACTIVE","vk.com/getoutgoaway","1"
"1","2020-10-21 12:58:42.810212","2020-10-29 19:03:31.329","$2a$10$mmsiXPN1reiV8bS6a14oBuK.Z5OhhWmYLOrTUeWVi9fG/iOMnXxkC","Admin","Admin","admin@admin.com","1","ACTIVE","-","0"
"3","2020-10-29 19:11:36.846","2020-10-29 19:11:36.846","$2a$10$3HAXqWvbliY2WjYzbk/2s.PVzkGwk43ZSLnYwemlQ56C6GNvWJjZq","Админ","ФИЯ","admin_fija@admin.com","2","ACTIVE","-","6712715665463"
"4","2020-10-29 19:12:31.076","2020-10-29 19:12:31.076","$2a$10$jWd0NXELY77SFfKe57KvyuJ.pCSATzkB0UR36cyYfieiQliCuKxOW","Админ","ФИТ1","admin_fit1@admin.com","1","ACTIVE","-","8143579946758"
"5","2020-10-29 19:12:57.547","2020-10-29 19:12:57.547","$2a$10$QhzsP5vdQjbQXzEdA2IFOeR9p8q1YEAEZdlO.B4J50nNyuIKgWx6e","Админ","ФИТ2","admin_fit2@admin.com","1","ACTIVE","-","9762509142941"
